HW6
…
Exercise 7

collect_metrics(tune_res_forest)

## # A tibble: 512 x 9
##     mtry trees min_n .metric .estimator  mean     n std_err .config             
##    <int> <int> <int> <chr>   <chr>      <dbl> <int>   <dbl> <chr>               
##  1     1     1     1 roc_auc hand_till  0.562     5 0.0181  Preprocessor1_Model~
##  2     2     1     1 roc_auc hand_till  0.556     5 0.0120  Preprocessor1_Model~
##  3     3     1     1 roc_auc hand_till  0.554     5 0.0110  Preprocessor1_Model~
##  4     4     1     1 roc_auc hand_till  0.554     5 0.0184  Preprocessor1_Model~
##  5     5     1     1 roc_auc hand_till  0.565     5 0.00509 Preprocessor1_Model~
##  6     6     1     1 roc_auc hand_till  0.551     5 0.0123  Preprocessor1_Model~
##  7     7     1     1 roc_auc hand_till  0.560     5 0.0184  Preprocessor1_Model~
##  8     8     1     1 roc_auc hand_till  0.584     5 0.00740 Preprocessor1_Model~
##  9     1     2     1 roc_auc hand_till  0.590     5 0.0191  Preprocessor1_Model~
## 10     2     2     1 roc_auc hand_till  0.584     5 0.0114  Preprocessor1_Model~
## # ... with 502 more rows
…
